<svg xmlns="http://www.w3.org/2000/svg" xmlns:xlink="http://www.w3.org/1999/xlink" width="474.52" height="199.5" viewBox="0 0 474.52 199.5">
  <defs>
    <filter id="Path_22" x="156.52" y="8.5" width="318" height="191" filterUnits="userSpaceOnUse">
      <feOffset dy="3" input="SourceAlpha"/>
      <feGaussianBlur stdDeviation="3" result="blur"/>
      <feFlood flood-opacity="0.161"/>
      <feComposite operator="in" in2="blur"/>
      <feComposite in="SourceGraphic"/>
    </filter>
  </defs>
  <g id="dropdown" transform="translate(-937.48 -43.5)">
    <g transform="matrix(1, 0, 0, 1, 937.48, 43.5)" filter="url(#Path_22)">
      <path id="Path_22-2" data-name="Path 22" d="M0,0H300V173H0Z" transform="translate(165.52 14.5)" fill="#fff"/>
    </g>
    <text id="User-name-get-truncated-this-way-when_" data-name="User-name-get-truncated-this-way-when…" transform="translate(1119 88)" fill="#141823" font-size="14" font-family="Lato-Bold, Lato" font-weight="700"><tspan x="0" y="0">User-name-get-truncated-this-way-when…</tspan></text>
    <text id="useremail_something.com" data-name="useremail@something.com" transform="translate(1189 107)" fill="#141823" font-size="12" font-family="Lato-Regular, Lato"><tspan x="-70.185" y="0">useremail@something.com</tspan></text>
    <g id="Group_41" data-name="Group 41" transform="translate(1119.481 142)">
      <text id="Edit_profile" data-name="Edit profile" transform="translate(26)" fill="#141823" font-size="14" font-family="Lato-Regular, Lato"><tspan x="0" y="14">Edit profile</tspan></text>
      <text id="edit" transform="translate(0 18)" fill="#141823" font-size="18" font-family="MaterialIcons-Regular, Material Icons"><tspan x="0" y="0">edit</tspan></text>
    </g>
    <g id="Group_53" data-name="Group 53" transform="translate(1119.481 169)">
      <text id="Settings" transform="translate(26)" fill="#141823" font-size="14" font-family="Lato-Regular, Lato"><tspan x="0" y="14">Settings</tspan></text>
      <text id="settings-2" data-name="settings" transform="translate(0 18)" fill="#141823" font-size="18" font-family="MaterialIcons-Regular, Material Icons"><tspan x="0" y="0">settings</tspan></text>
    </g>
    <g id="Group_54" data-name="Group 54" transform="translate(1119.481 196)">
      <text id="My_subscriptions" data-name="My subscriptions" transform="translate(26)" fill="#141823" font-size="14" font-family="Lato-Regular, Lato"><tspan x="0" y="14">My subscriptions</tspan></text>
      <text id="subscriptions" transform="translate(0 18)" fill="#141823" font-size="18" font-family="MaterialIcons-Regular, Material Icons"><tspan x="0" y="0">subscriptions</tspan></text>
    </g>
    <path id="Path_20" data-name="Path 20" d="M0,0H299.5" transform="translate(1103.5 231)" fill="rgba(0,0,0,0)" stroke="#edeff0" stroke-width="1"/>
    <path id="Path_21" data-name="Path 21" d="M0,0H299.5" transform="translate(1103.5 126)" fill="rgba(0,0,0,0)" stroke="#edeff0" stroke-width="1"/>
    <g id="Group_4" data-name="Group 4" transform="translate(937.193 39)">
      <rect id="Rectangle_17" data-name="Rectangle 17" width="465" height="24" rx="5" transform="translate(0.288 4.5)" fill="#141823"/>
      <rect id="Rectangle_18" data-name="Rectangle 18" width="9" height="9" transform="translate(232.652 22.136) rotate(45)" fill="#141823"/>
    </g>
    <text id="User-name-get-truncated-this-way-when-is-too-long-_Display-onToolTip" data-name="User-name-get-truncated-this-way-when-is-too-long-&amp;Display-onToolTip" transform="translate(944.48 61)" fill="#fff" font-size="14" font-family="Lato-Regular, Lato"><tspan x="0" y="0">User-name-get-truncated-this-way-when-is-too-long-&amp;Display-onToolTip</tspan></text>
  </g>
</svg>
