<?xml version="1.0" encoding="utf-8"?>
<!-- Generator: Adobe Illustrator 24.0.1, SVG Export Plug-In . SVG Version: 6.00 Build 0)  -->
<svg version="1.1" id="Layer_1" xmlns="http://www.w3.org/2000/svg" xmlns:xlink="http://www.w3.org/1999/xlink" x="0px" y="0px"
	 viewBox="0 0 24 24" style="enable-background:new 0 0 24 24;" xml:space="preserve">
<style type="text/css">
	.st0{fill:#141823;}
</style>
<title>suse</title>
<path class="st0" d="M16.3,11.9c1.2,0.1,2.2-0.9,2.2-2.1l0,0c0-1.2-0.9-2.2-2.1-2.2c-0.6,0-1.1,0.2-1.6,0.6
	c-0.9,0.8-0.9,2.2-0.1,3.1C15.1,11.6,15.7,11.9,16.3,11.9 M16.8,8.6c0.5,0,1,0.3,1,0.6s-0.4,0.6-1,0.6s-1-0.3-1-0.6
	S16.2,8.6,16.8,8.6"/>
<path class="st0" d="M10.2,17.9c0.8,0.1,1.6,0.2,2.5,0.2c2.2,0.1,4.4-0.3,6.4-1.1c0.8-0.3,1.5-0.7,2.2-1.2c0.1-0.2,0.3-0.3,0.3-0.6
	l0.1-0.1c0.1-0.3,0.2-0.5,0.2-0.8c0.1-0.4-0.3-0.2-0.3-0.2c-1.3,0.8-2.7,1.2-4.2,1.3c-2.1,0-6.3-2.1-6.8-2.3V13
	c-0.1-0.2-0.7-1.8-0.9-2.1c3,2,5.6,3.1,7.5,3.3c1.6,0.1,3.3-0.5,4.5-1.5c0.1,0,0.4-0.2,0.3-0.5c-0.3-1-1.2-4.3-2-5.1
	c-0.2-0.3-0.5-0.5-0.8-0.7C16,4.6,8.7,3.5,8.4,3.4H8.3l0,0c0,0,0,1.5,0,1.7C8,5.2,7,4.9,5.5,4.5c-4.2,3.7-4.6,10-0.9,14.2
	C5,19.2,5.4,19.6,5.9,20c0-0.1,0-0.2,0-0.4C6.2,17.5,7.9,17.6,10.2,17.9z M14.3,7.5c0.6-0.6,1.4-0.9,2.2-0.8c1.7,0.1,3.1,1.5,3,3.3
	c0,0.8-0.4,1.6-1,2.1c-0.6,0.6-1.4,0.9-2.2,0.8c-1.7-0.1-3.1-1.5-3-3.2C13.4,8.9,13.7,8.1,14.3,7.5L14.3,7.5z"/>
</svg>
